ESS330 Lab_08 – ess-330-lab06
…
After visualizing the results of the tuning process, I found that the mae, rmse, and rsq were pretty consistent for both the randomly selected predictor and the # of trees. This indicates that I can select a lower trees value and still get the same results as a higher value.

collect_metrics(model_params)

# A tibble: 75 × 8
    mtry trees .metric .estimator  mean     n std_err .config              
   <int> <int> <chr>   <chr>      <dbl> <int>   <dbl> <chr>                
 1     1  1167 mae     standard   0.370    10  0.0225 Preprocessor1_Model01
 2     1  1167 rmse    standard   0.582    10  0.0430 Preprocessor1_Model01
 3     1  1167 rsq     standard   0.768    10  0.0283 Preprocessor1_Model01
 4     3   584 mae     standard   0.374    10  0.0235 Preprocessor1_Model02
 5     3   584 rmse    standard   0.587    10  0.0442 Preprocessor1_Model02
 6     3   584 rsq     standard   0.767    10  0.0287 Preprocessor1_Model02
 7     5  1666 mae     standard   0.373    10  0.0238 Preprocessor1_Model03
 8     5  1666 rmse    standard   0.586    10  0.0446 Preprocessor1_Model03
 9     5  1666 rsq     standard   0.768    10  0.0289 Preprocessor1_Model03
10     8   167 mae     standard   0.374    10  0.0228 Preprocessor1_Model04
# ℹ 65 more rows
…
